-------------------------------------------------------------------------------
Test set: com.swg.service.ServiceLayerImplTest
-------------------------------------------------------------------------------
Tests run: 1, Failures: 0, Errors: 0, Skipped: 0, Time elapsed: 0 sec
